<?xml version="1.0" encoding="utf-8" standalone="no"?>
<!DOCTYPE svg PUBLIC "-//W3C//DTD SVG 1.1//EN"
  "http://www.w3.org/Graphics/SVG/1.1/DTD/svg11.dtd">
<!-- Created with matplotlib (http://matplotlib.org/) -->
<svg height="260pt" version="1.1" viewBox="0 0 326 260" width="326pt" xmlns="http://www.w3.org/2000/svg" xmlns:xlink="http://www.w3.org/1999/xlink">
 <defs>
  <style type="text/css">
*{stroke-linecap:butt;stroke-linejoin:round;}
  </style>
 </defs>
 <g id="figure_1">
  <g id="patch_1">
   <path d="
M0 260.517
L326.43 260.517
L326.43 0
L0 0
z
" style="fill:#ffffff;"/>
  </g>
  <g id="axes_1">
   <g id="line2d_1">
    <path clip-path="url(#p9df90c061f)" d="
M16.74 57.0212
L200.88 57.0212" style="fill:none;stroke:#000000;stroke-linecap:square;stroke-width:1.5;"/>
   </g>
   <g id="line2d_2">
    <path clip-path="url(#p9df90c061f)" d="
M142.29 190.941
L200.88 190.941" style="fill:none;stroke:#000000;stroke-linecap:square;stroke-width:1.5;"/>
   </g>
   <g id="line2d_3">
    <path clip-path="url(#p9df90c061f)" d="
M234.36 57.0212
L284.58 57.0212" style="fill:none;stroke:#000000;stroke-linecap:square;stroke-width:1.5;"/>
   </g>
   <g id="patch_2">
    <path clip-path="url(#p9df90c061f)" d="
M8.37 69.5762
L16.74 69.5762
L16.74 44.4662
L8.37 44.4662
z
" style="fill:#ffffff;"/>
   </g>
   <g id="patch_3">
    <path clip-path="url(#p9df90c061f)" d="
M41.85 69.5762
L92.07 69.5762
L92.07 44.4662
L41.85 44.4662
z
" style="fill:#ffffff;"/>
   </g>
   <g id="patch_4">
    <path clip-path="url(#p9df90c061f)" d="
M117.18 82.1312
L167.4 82.1312
L167.4 31.9112
L117.18 31.9112
z
" style="fill:#e6e6e6;stroke:#000000;stroke-width:2.5;"/>
   </g>
   <g id="patch_5">
    <path clip-path="url(#p9df90c061f)" d="
M220.131 199.73
L225.99 199.73
L225.99 182.153
L220.131 182.153
z
" style="fill:#ffffff;"/>
   </g>
   <g id="patch_6">
    <path clip-path="url(#p9df90c061f)" d="
M8.37 203.496
L16.74 203.496
L16.74 178.386
L8.37 178.386
z
" style="fill:#ffffff;"/>
   </g>
   <g id="patch_7">
    <path clip-path="url(#p9df90c061f)" d="
M117.18 216.051
L167.4 216.051
L167.4 165.831
L117.18 165.831
z
" style="fill:#e6e6e6;stroke:#000000;stroke-width:2.5;"/>
   </g>
   <g id="patch_8">
    <path clip-path="url(#p9df90c061f)" d="
M259.47 82.1312
L309.69 82.1312
L309.69 31.9112
L259.47 31.9112
z
" style="fill:#e6e6e6;stroke:#000000;stroke-width:2.5;"/>
   </g>
   <g id="line2d_4">
    <path clip-path="url(#p9df90c061f)" d="
M8.37 65.3912
L12.555 69.5762" style="fill:none;stroke:#000000;stroke-linecap:round;stroke-width:1.75;"/>
   </g>
   <g id="line2d_5">
    <path clip-path="url(#p9df90c061f)" d="
M8.37 48.6513
L16.74 57.0212" style="fill:none;stroke:#000000;stroke-linecap:round;stroke-width:1.75;"/>
   </g>
   <g id="line2d_6">
    <path clip-path="url(#p9df90c061f)" d="
M8.37 57.0212
L16.74 65.3912" style="fill:none;stroke:#000000;stroke-linecap:round;stroke-width:1.75;"/>
   </g>
   <g id="line2d_7">
    <path clip-path="url(#p9df90c061f)" d="
M12.555 44.4663
L16.74 48.6513" style="fill:none;stroke:#000000;stroke-linecap:round;stroke-width:1.75;"/>
   </g>
   <g id="line2d_8">
    <path clip-path="url(#p9df90c061f)" d="
M16.74 69.5762
L16.74 44.4663" style="fill:none;stroke:#000000;stroke-linecap:round;stroke-width:2.5;"/>
   </g>
   <g id="line2d_9">
    <path clip-path="url(#p9df90c061f)" d="
M41.85 57.0212
L46.035 69.5762
L54.405 44.4663
L62.775 69.5762
L71.145 44.4663
L79.515 69.5762
L87.885 44.4663
L92.07 57.0212" style="fill:none;stroke:#000000;stroke-linecap:round;stroke-width:2.5;"/>
   </g>
   <g id="line2d_10">
    <path clip-path="url(#p9df90c061f)" d="
M142.29 86.3162
L142.29 98.8712
L167.4 98.8712" style="fill:none;stroke:#000000;stroke-linecap:round;stroke-width:1.5;"/>
   </g>
   <g id="line2d_11">
    <path clip-path="url(#p9df90c061f)" d="
M159.03 94.6863
L168.237 98.8712
L159.03 103.056" style="fill:none;stroke:#000000;stroke-linecap:round;stroke-width:1.5;"/>
   </g>
   <g id="line2d_12">
    <path clip-path="url(#p9df90c061f)" d="
M200.88 123.981
L234.36 123.981" style="fill:none;stroke:#000000;stroke-linecap:round;stroke-width:1.75;"/>
   </g>
   <g id="line2d_13">
    <path clip-path="url(#p9df90c061f)" d="
M200.88 57.0212
L200.88 190.941" style="fill:none;stroke:#000000;stroke-linecap:round;stroke-width:2.5;"/>
   </g>
   <g id="line2d_14">
    <path clip-path="url(#p9df90c061f)" d="
M234.36 57.0212
L234.36 190.941" style="fill:none;stroke:#000000;stroke-linecap:round;stroke-width:2.5;"/>
   </g>
   <g id="line2d_15">
    <path clip-path="url(#p9df90c061f)" d="
M225.99 197.219
L234.36 190.941
L225.99 184.664" style="fill:none;stroke:#000000;stroke-linecap:round;stroke-width:1.75;"/>
   </g>
   <g id="line2d_16">
    <path clip-path="url(#p9df90c061f)" d="
M220.131 196.8
L223.06 199.73" style="fill:none;stroke:#000000;stroke-linecap:round;stroke-width:1.225;"/>
   </g>
   <g id="line2d_17">
    <path clip-path="url(#p9df90c061f)" d="
M220.131 185.082
L225.99 190.941" style="fill:none;stroke:#000000;stroke-linecap:round;stroke-width:1.225;"/>
   </g>
   <g id="line2d_18">
    <path clip-path="url(#p9df90c061f)" d="
M220.131 190.941
L225.99 196.8" style="fill:none;stroke:#000000;stroke-linecap:round;stroke-width:1.225;"/>
   </g>
   <g id="line2d_19">
    <path clip-path="url(#p9df90c061f)" d="
M223.06 182.153
L225.99 185.082" style="fill:none;stroke:#000000;stroke-linecap:round;stroke-width:1.225;"/>
   </g>
   <g id="line2d_20">
    <path clip-path="url(#p9df90c061f)" d="
M225.99 199.73
L225.99 182.153" style="fill:none;stroke:#000000;stroke-linecap:round;stroke-width:1.75;"/>
   </g>
   <g id="line2d_21">
    <path clip-path="url(#p9df90c061f)" d="
M8.37 199.311
L12.555 203.496" style="fill:none;stroke:#000000;stroke-linecap:round;stroke-width:1.75;"/>
   </g>
   <g id="line2d_22">
    <path clip-path="url(#p9df90c061f)" d="
M8.37 182.571
L16.74 190.941" style="fill:none;stroke:#000000;stroke-linecap:round;stroke-width:1.75;"/>
   </g>
   <g id="line2d_23">
    <path clip-path="url(#p9df90c061f)" d="
M8.37 190.941
L16.74 199.311" style="fill:none;stroke:#000000;stroke-linecap:round;stroke-width:1.75;"/>
   </g>
   <g id="line2d_24">
    <path clip-path="url(#p9df90c061f)" d="
M12.555 178.386
L16.74 182.571" style="fill:none;stroke:#000000;stroke-linecap:round;stroke-width:1.75;"/>
   </g>
   <g id="line2d_25">
    <path clip-path="url(#p9df90c061f)" d="
M16.74 203.496
L16.74 178.386" style="fill:none;stroke:#000000;stroke-linecap:round;stroke-width:2.5;"/>
   </g>
   <g id="line2d_26">
    <path clip-path="url(#p9df90c061f)" d="
M104.625 197.219
L116.343 190.941
L104.625 184.664" style="fill:none;stroke:#000000;stroke-linecap:round;stroke-width:2.5;"/>
   </g>
   <g id="line2d_27">
    <path clip-path="url(#p9df90c061f)" d="
M29.295 197.219
L17.577 190.941
L29.295 184.664" style="fill:none;stroke:#000000;stroke-linecap:round;stroke-width:2.5;"/>
   </g>
   <g id="line2d_28">
    <path clip-path="url(#p9df90c061f)" d="
M16.74 190.941
L117.18 190.941" style="fill:none;stroke:#000000;stroke-linecap:square;stroke-width:1.75;"/>
   </g>
   <g id="line2d_29">
    <path clip-path="url(#p9df90c061f)" d="
M142.29 220.236
L142.29 232.791
L167.4 232.791" style="fill:none;stroke:#000000;stroke-linecap:round;stroke-width:1.5;"/>
   </g>
   <g id="line2d_30">
    <path clip-path="url(#p9df90c061f)" d="
M159.03 228.606
L168.237 232.791
L159.03 236.976" style="fill:none;stroke:#000000;stroke-linecap:round;stroke-width:1.5;"/>
   </g>
   <g id="line2d_31">
    <path clip-path="url(#p9df90c061f)" d="
M284.58 86.3162
L284.58 98.8712
L309.69 98.8712" style="fill:none;stroke:#000000;stroke-linecap:round;stroke-width:1.5;"/>
   </g>
   <g id="line2d_32">
    <path clip-path="url(#p9df90c061f)" d="
M301.32 94.6863
L310.527 98.8712
L301.32 103.056" style="fill:none;stroke:#000000;stroke-linecap:round;stroke-width:1.5;"/>
   </g>
   <g id="patch_9">
    <path clip-path="url(#p9df90c061f)" d="
M200.88 61.2062
C201.99 61.2062 203.054 60.7653 203.839 59.9805
C204.624 59.1957 205.065 58.1311 205.065 57.0212
C205.065 55.9114 204.624 54.8468 203.839 54.062
C203.054 53.2772 201.99 52.8362 200.88 52.8362
C199.77 52.8362 198.706 53.2772 197.921 54.062
C197.136 54.8468 196.695 55.9114 196.695 57.0212
C196.695 58.1311 197.136 59.1957 197.921 59.9805
C198.706 60.7653 199.77 61.2062 200.88 61.2062
z
" style="fill:#ffffff;stroke:#000000;stroke-width:1.75;"/>
   </g>
   <g id="patch_10">
    <path clip-path="url(#p9df90c061f)" d="
M200.88 195.126
C201.99 195.126 203.054 194.685 203.839 193.9
C204.624 193.116 205.065 192.051 205.065 190.941
C205.065 189.831 204.624 188.767 203.839 187.982
C203.054 187.197 201.99 186.756 200.88 186.756
C199.77 186.756 198.706 187.197 197.921 187.982
C197.136 188.767 196.695 189.831 196.695 190.941
C196.695 192.051 197.136 193.116 197.921 193.9
C198.706 194.685 199.77 195.126 200.88 195.126
z
" style="fill:#ffffff;stroke:#000000;stroke-width:1.75;"/>
   </g>
   <g id="patch_11">
    <path clip-path="url(#p9df90c061f)" d="
M200.88 128.166
C201.99 128.166 203.055 127.725 203.839 126.94
C204.624 126.156 205.065 125.091 205.065 123.981
C205.065 122.872 204.624 121.807 203.839 121.022
C203.055 120.237 201.99 119.796 200.88 119.796
L200.88 123.981
L200.88 128.166
z
" style="fill:#ffffff;stroke:#000000;stroke-width:1.75;"/>
   </g>
   <g id="patch_12">
    <path clip-path="url(#p9df90c061f)" d="
M234.36 61.2062
C235.47 61.2062 236.534 60.7653 237.319 59.9805
C238.104 59.1957 238.545 58.1311 238.545 57.0212
C238.545 55.9114 238.104 54.8468 237.319 54.062
C236.534 53.2772 235.47 52.8362 234.36 52.8362
C233.25 52.8362 232.186 53.2772 231.401 54.062
C230.616 54.8468 230.175 55.9114 230.175 57.0212
C230.175 58.1311 230.616 59.1957 231.401 59.9805
C232.186 60.7653 233.25 61.2062 234.36 61.2062
z
" style="fill:#ffffff;stroke:#000000;stroke-width:1.75;"/>
   </g>
   <g id="patch_13">
    <path clip-path="url(#p9df90c061f)" d="
M234.36 195.126
C235.47 195.126 236.534 194.685 237.319 193.9
C238.104 193.116 238.545 192.051 238.545 190.941
C238.545 189.831 238.104 188.767 237.319 187.982
C236.534 187.197 235.47 186.756 234.36 186.756
C233.25 186.756 232.186 187.197 231.401 187.982
C230.616 188.767 230.175 189.831 230.175 190.941
C230.175 192.051 230.616 193.116 231.401 193.9
C232.186 194.685 233.25 195.126 234.36 195.126
z
" style="fill:#ffffff;stroke:#000000;stroke-width:1.75;"/>
   </g>
   <g id="patch_14">
    <path clip-path="url(#p9df90c061f)" d="
M234.36 119.796
C233.25 119.796 232.185 120.237 231.401 121.022
C230.616 121.807 230.175 122.872 230.175 123.981
C230.175 125.091 230.616 126.156 231.401 126.94
C232.185 127.725 233.25 128.166 234.36 128.166
L234.36 123.981
L234.36 119.796
z
" style="fill:#ffffff;stroke:#000000;stroke-width:1.75;"/>
   </g>
   <g id="text_1">
    <!-- $c$ -->
    <defs>
     <path d="
M11.7188 11.9219
Q11.7188 7.5625 13.9375 4.53125
Q16.1562 1.51562 20.3125 1.51562
Q26.2656 1.51562 31.75 4.25
Q37.25 6.98438 40.7188 11.8125
Q41.0156 12.1094 41.5 12.1094
Q42 12.1094 42.5 11.5469
Q43.0156 10.9844 43.0156 10.5
Q43.0156 10.1094 42.8281 9.90625
Q39.1562 4.78125 32.9531 1.82812
Q26.7656 -1.125 20.125 -1.125
Q15.3281 -1.125 11.6719 1.14062
Q8.01562 3.42188 6 7.21875
Q4 11.0312 4 15.8281
Q4 22.5625 7.76562 29.2031
Q11.5312 35.8438 17.7812 40.0156
Q24.0312 44.1875 30.9062 44.1875
Q35.4062 44.1875 38.9844 42.0156
Q42.5781 39.8438 42.5781 35.5938
Q42.5781 32.8594 40.9844 30.9219
Q39.4062 29 36.7188 29
Q35.1094 29 34 30
Q32.9062 31 32.9062 32.625
Q32.9062 34.9688 34.6094 36.625
Q36.3281 38.2812 38.625 38.2812
L38.8125 38.2812
Q37.6406 39.9844 35.4219 40.7969
Q33.2031 41.6094 30.8125 41.6094
Q24.9531 41.6094 20.5469 36.5938
Q16.1562 31.5938 13.9375 24.625
Q11.7188 17.6719 11.7188 11.9219" id="Cmmi10-63"/>
    </defs>
    <g transform="translate(62.56 31.936875)scale(0.2 -0.2)">
     <use transform="translate(0.0 0.8125)" xlink:href="#Cmmi10-63"/>
    </g>
   </g>
   <g id="text_2">
    <!-- $m_3$ -->
    <defs>
     <path d="
M9.51562 7.71875
Q11.8594 4.29688 15.8125 2.64062
Q19.7812 0.984375 24.3125 0.984375
Q30.125 0.984375 32.5625 5.9375
Q35.0156 10.8906 35.0156 17.1875
Q35.0156 20.0156 34.5 22.8438
Q33.9844 25.6875 32.7656 28.125
Q31.5469 30.5625 29.4219 32.0312
Q27.2969 33.5 24.2188 33.5
L17.5781 33.5
Q16.7031 33.5 16.7031 34.4219
L16.7031 35.2969
Q16.7031 36.0781 17.5781 36.0781
L23.0938 36.5312
Q26.6094 36.5312 28.9219 39.1562
Q31.25 41.7969 32.3281 45.5781
Q33.4062 49.3594 33.4062 52.7812
Q33.4062 57.5625 31.1562 60.6406
Q28.9062 63.7188 24.3125 63.7188
Q20.5156 63.7188 17.0469 62.2812
Q13.5781 60.8438 11.5312 57.9062
Q11.7188 57.9531 11.8594 57.9844
Q12.0156 58.0156 12.2031 58.0156
Q14.4531 58.0156 15.9688 56.4531
Q17.4844 54.8906 17.4844 52.6875
Q17.4844 50.5312 15.9688 48.9688
Q14.4531 47.4062 12.2031 47.4062
Q10.0156 47.4062 8.45312 48.9688
Q6.89062 50.5312 6.89062 52.6875
Q6.89062 56.9844 9.46875 60.1562
Q12.0625 63.3281 16.1406 64.9688
Q20.2188 66.6094 24.3125 66.6094
Q27.3438 66.6094 30.7031 65.7031
Q34.0781 64.7969 36.8125 63.1094
Q39.5469 61.4219 41.2812 58.7812
Q43.0156 56.1562 43.0156 52.7812
Q43.0156 48.5781 41.1406 45.0156
Q39.2656 41.4531 35.9844 38.8594
Q32.7188 36.2812 28.8125 35.0156
Q33.1562 34.1875 37.0625 31.7344
Q40.9688 29.2969 43.3281 25.4844
Q45.7031 21.6875 45.7031 17.2812
Q45.7031 11.7656 42.6719 7.29688
Q39.6562 2.82812 34.7188 0.3125
Q29.7812 -2.20312 24.3125 -2.20312
Q19.625 -2.20312 14.9062 -0.40625
Q10.2031 1.375 7.20312 4.9375
Q4.20312 8.5 4.20312 13.4844
Q4.20312 15.9688 5.85938 17.625
Q7.51562 19.2812 10.0156 19.2812
Q11.625 19.2812 12.9688 18.5312
Q14.3125 17.7812 15.0625 16.4062
Q15.8281 15.0469 15.8281 13.4844
Q15.8281 11.0312 14.1094 9.375
Q12.4062 7.71875 10.0156 7.71875
z
" id="Cmr10-33"/>
     <path d="
M7.71875 1.70312
Q7.71875 2.29688 7.8125 2.59375
L15.2812 32.4219
Q16.0156 35.2031 16.0156 37.3125
Q16.0156 41.6094 13.0938 41.6094
Q9.96875 41.6094 8.45312 37.8594
Q6.9375 34.125 5.51562 28.4219
Q5.51562 28.125 5.21875 27.9531
Q4.9375 27.7812 4.6875 27.7812
L3.51562 27.7812
Q3.17188 27.7812 2.92188 28.1406
Q2.6875 28.5156 2.6875 28.8125
Q3.76562 33.1562 4.76562 36.1719
Q5.76562 39.2031 7.89062 41.6875
Q10.0156 44.1875 13.1875 44.1875
Q16.9375 44.1875 19.8125 41.8125
Q22.7031 39.4531 22.7031 35.7969
Q25.6875 39.7031 29.6875 41.9375
Q33.6875 44.1875 38.1875 44.1875
Q42.9219 44.1875 46.3594 41.7656
Q49.8125 39.3594 49.8125 34.9062
Q52.875 39.2656 57 41.7188
Q61.1406 44.1875 66.0156 44.1875
Q71.1875 44.1875 74.3281 41.375
Q77.4844 38.5781 77.4844 33.4062
Q77.4844 29.2969 75.6562 23.4844
Q73.8281 17.6719 71.0938 10.5
Q69.6719 7.03125 69.6719 4.5
Q69.6719 1.51562 72.0156 1.51562
Q75.9219 1.51562 78.5156 5.70312
Q81.1094 9.90625 82.1719 14.7031
Q82.4688 15.2812 83.0156 15.2812
L84.1875 15.2812
Q84.5781 15.2812 84.8438 15.0156
Q85.1094 14.75 85.1094 14.4062
Q85.1094 14.3125 85.0156 14.1094
Q83.6406 8.45312 80.25 3.65625
Q76.8594 -1.125 71.7812 -1.125
Q68.2656 -1.125 65.7656 1.29688
Q63.2812 3.71875 63.2812 7.17188
Q63.2812 8.9375 64.1094 11.0781
Q66.9375 18.6094 68.8125 24.5156
Q70.7031 30.4219 70.7031 34.9062
Q70.7031 37.7031 69.5781 39.6562
Q68.4531 41.6094 65.8281 41.6094
Q60.3594 41.6094 56.3438 38.25
Q52.3438 34.9062 49.4219 29.3906
Q49.2188 28.4219 49.125 27.875
L42.6719 2.20312
Q42.3281 0.828125 41.125 -0.140625
Q39.9375 -1.125 38.4844 -1.125
Q37.3125 -1.125 36.4062 -0.34375
Q35.5 0.4375 35.5 1.70312
Q35.5 2.29688 35.5938 2.59375
L42 28.0781
Q43.0156 32.1719 43.0156 34.9062
Q43.0156 37.7031 41.8594 39.6562
Q40.7188 41.6094 37.9844 41.6094
Q34.3281 41.6094 31.25 39.9844
Q28.1719 38.375 25.875 35.7188
Q23.5781 33.0625 21.6875 29.3906
L14.8906 2.20312
Q14.5469 0.828125 13.3438 -0.140625
Q12.1562 -1.125 10.6875 -1.125
Q9.46875 -1.125 8.59375 -0.34375
Q7.71875 0.4375 7.71875 1.70312" id="Cmmi10-6d"/>
    </defs>
    <g transform="translate(128.49 13.75625)scale(0.2 -0.2)">
     <use transform="translate(0.0 0.8125)" xlink:href="#Cmmi10-6d"/>
     <use transform="translate(87.79296875 -24.696875)scale(0.7)" xlink:href="#Cmr10-33"/>
    </g>
   </g>
   <g id="text_3">
    <!-- $x_3$ -->
    <defs>
     <path d="
M7.8125 2.875
Q9.57812 1.51562 12.7969 1.51562
Q15.9219 1.51562 18.3125 4.51562
Q20.7031 7.51562 21.5781 11.0781
L26.125 28.8125
Q27.2031 33.6406 27.2031 35.4062
Q27.2031 37.8906 25.8125 39.75
Q24.4219 41.6094 21.9219 41.6094
Q18.75 41.6094 15.9688 39.625
Q13.1875 37.6406 11.2812 34.5938
Q9.375 31.5469 8.59375 28.4219
Q8.40625 27.7812 7.8125 27.7812
L6.59375 27.7812
Q5.8125 27.7812 5.8125 28.7188
L5.8125 29
Q6.78125 32.7188 9.125 36.25
Q11.4688 39.7969 14.8594 41.9844
Q18.2656 44.1875 22.125 44.1875
Q25.7812 44.1875 28.7344 42.2344
Q31.6875 40.2812 32.9062 36.9219
Q34.625 39.9844 37.2812 42.0781
Q39.9375 44.1875 43.1094 44.1875
Q45.2656 44.1875 47.5 43.4219
Q49.75 42.6719 51.1719 41.1094
Q52.5938 39.5469 52.5938 37.2031
Q52.5938 34.6719 50.9531 32.8281
Q49.3125 31 46.7812 31
Q45.1719 31 44.0938 32.0312
Q43.0156 33.0625 43.0156 34.625
Q43.0156 36.7188 44.4531 38.2969
Q45.9062 39.8906 47.9062 40.1875
Q46.0938 41.6094 42.9219 41.6094
Q39.7031 41.6094 37.3281 38.625
Q34.9688 35.6406 33.9844 31.9844
L29.5938 14.3125
Q28.5156 10.2969 28.5156 7.71875
Q28.5156 5.17188 29.9531 3.34375
Q31.3906 1.51562 33.7969 1.51562
Q38.4844 1.51562 42.1562 5.64062
Q45.8438 9.76562 47.0156 14.7031
Q47.2188 15.2812 47.7969 15.2812
L49.0312 15.2812
Q49.4219 15.2812 49.6562 15.0156
Q49.9062 14.75 49.9062 14.4062
Q49.9062 14.3125 49.8125 14.1094
Q48.3906 8.15625 43.8438 3.51562
Q39.3125 -1.125 33.5938 -1.125
Q29.9375 -1.125 26.9844 0.84375
Q24.0312 2.82812 22.7969 6.20312
Q21.2344 3.26562 18.4688 1.0625
Q15.7188 -1.125 12.5938 -1.125
Q10.4531 -1.125 8.17188 -0.359375
Q5.90625 0.390625 4.48438 1.95312
Q3.07812 3.51562 3.07812 5.90625
Q3.07812 8.25 4.70312 10.1719
Q6.34375 12.1094 8.79688 12.1094
Q10.4531 12.1094 11.5781 11.1094
Q12.7031 10.1094 12.7031 8.5
Q12.7031 6.39062 11.2969 4.82812
Q9.90625 3.26562 7.8125 2.875" id="Cmmi10-78"/>
    </defs>
    <g transform="translate(148.23 120.9975)scale(0.2 -0.2)">
     <use transform="translate(0.0 0.8125)" xlink:href="#Cmmi10-78"/>
     <use transform="translate(57.080078125 -24.696875)scale(0.7)" xlink:href="#Cmr10-33"/>
    </g>
   </g>
   <g id="text_4">
    <g id="patch_15">
     <path d="
M58.46 202.619
L75.46 202.619
L75.46 179.263
L58.46 179.263
z
" style="fill:#ffffff;stroke:#ffffff;"/>
    </g>
    <!-- $F$ -->
    <defs>
     <path d="
M4.6875 0
Q3.71875 0 3.71875 1.3125
Q3.76562 1.5625 3.90625 2.17188
Q4.04688 2.78125 4.3125 3.14062
Q4.59375 3.51562 4.98438 3.51562
Q11.0781 3.51562 13.4844 4.20312
Q14.7969 4.64062 15.375 6.89062
L29.1094 61.8125
Q29.2969 62.7969 29.2969 63.1875
Q29.2969 64.2656 28.0781 64.4062
Q26.2188 64.7969 20.9062 64.7969
Q19.9219 64.7969 19.9219 66.1094
Q19.9688 66.3594 20.1094 66.9688
Q20.2656 67.5781 20.5312 67.9375
Q20.7969 68.3125 21.1875 68.3125
L74.0312 68.3125
Q75 68.3125 75 67
L72.6094 46.2969
Q72.6094 46 72.2656 45.7031
Q71.9219 45.4062 71.5781 45.4062
L70.7031 45.4062
Q69.6719 45.4062 69.6719 46.6875
Q70.3125 51.2188 70.3125 54.1094
Q70.3125 59.0781 68.1562 61.4219
Q66.0156 63.7656 62.7344 64.2812
Q59.4688 64.7969 53.7188 64.7969
L43.0156 64.7969
Q40.2812 64.7969 39.4062 64.3281
Q38.5312 63.875 37.7969 61.375
L31.3906 35.8906
L38.9219 35.8906
Q42.625 35.8906 44.9219 36.2812
Q47.2188 36.6719 48.7344 37.7969
Q50.25 38.9219 51.25 41.0469
Q52.25 43.1719 53.0781 46.6875
Q53.375 47.6094 54.1094 47.6094
L54.9844 47.6094
Q56 47.6094 56 46.2969
L49.9062 21.5781
Q49.4688 20.7031 48.875 20.7031
L48 20.7031
Q47.0156 20.7031 47.0156 22.0156
Q47.2656 23.0469 47.4062 23.7344
Q47.5625 24.4219 47.7812 25.7031
Q48 27 48 27.9844
Q48 30.8594 45.4531 31.6406
Q42.9219 32.4219 38.8125 32.4219
L30.6094 32.4219
L24.125 6.5
Q23.875 5.51562 23.875 5.51562
Q23.875 4.34375 24.6094 4.20312
Q27.2031 3.51562 34.8125 3.51562
Q35.7969 3.51562 35.7969 2.20312
Q35.4531 0.78125 35.25 0.390625
Q35.0625 0 34.0781 0
z
" id="Cmmi10-46"/>
    </defs>
    <g transform="translate(60.46 196.46)scale(0.2 -0.2)">
     <use transform="translate(0.0 0.6875)" xlink:href="#Cmmi10-46"/>
    </g>
   </g>
   <g id="text_5">
    <!-- $m_2$ -->
    <defs>
     <path d="
M4.98438 0
L4.98438 2.6875
Q4.98438 2.9375 5.17188 3.21875
L20.7031 20.4062
Q24.2188 24.2188 26.4062 26.7969
Q28.6094 29.3906 30.75 32.7656
Q32.9062 36.1406 34.1562 39.625
Q35.4062 43.1094 35.4062 47.0156
Q35.4062 51.125 33.8906 54.8594
Q32.375 58.5938 29.375 60.8438
Q26.375 63.0938 22.125 63.0938
Q17.7812 63.0938 14.3125 60.4688
Q10.8438 57.8594 9.42188 53.7188
Q9.8125 53.8125 10.5 53.8125
Q12.75 53.8125 14.3281 52.2969
Q15.9219 50.7812 15.9219 48.3906
Q15.9219 46.0938 14.3281 44.5
Q12.75 42.9219 10.5 42.9219
Q8.15625 42.9219 6.5625 44.5469
Q4.98438 46.1875 4.98438 48.3906
Q4.98438 52.1562 6.39062 55.4375
Q7.8125 58.7344 10.4688 61.2969
Q13.1406 63.875 16.4844 65.2344
Q19.8281 66.6094 23.5781 66.6094
Q29.2969 66.6094 34.2188 64.1875
Q39.1562 61.7656 42.0312 57.3438
Q44.9219 52.9375 44.9219 47.0156
Q44.9219 42.6719 43.0156 38.7656
Q41.1094 34.8594 38.125 31.6562
Q35.1562 28.4688 30.5156 24.4062
Q25.875 20.3594 24.4219 19
L13.0938 8.10938
L22.7031 8.10938
Q29.7812 8.10938 34.5469 8.21875
Q39.3125 8.34375 39.5938 8.59375
Q40.7656 9.85938 42 17.8281
L44.9219 17.8281
L42.0938 0
z
" id="Cmr10-32"/>
    </defs>
    <g transform="translate(128.49 148.07625)scale(0.2 -0.2)">
     <use transform="translate(0.0 0.8125)" xlink:href="#Cmmi10-6d"/>
     <use transform="translate(87.79296875 -24.696875)scale(0.7)" xlink:href="#Cmr10-32"/>
    </g>
   </g>
   <g id="text_6">
    <!-- $x_2$ -->
    <g transform="translate(148.23 255.3175)scale(0.2 -0.2)">
     <use transform="translate(0.0 0.8125)" xlink:href="#Cmmi10-78"/>
     <use transform="translate(57.080078125 -24.696875)scale(0.7)" xlink:href="#Cmr10-32"/>
    </g>
   </g>
   <g id="text_7">
    <!-- $m_1$ -->
    <defs>
     <path d="
M9.28125 0
L9.28125 3.51562
Q21.7812 3.51562 21.7812 6.6875
L21.7812 59.1875
Q16.6094 56.6875 8.6875 56.6875
L8.6875 60.2031
Q20.9531 60.2031 27.2031 66.6094
L28.6094 66.6094
Q28.9531 66.6094 29.2656 66.3281
Q29.5938 66.0625 29.5938 65.7188
L29.5938 6.6875
Q29.5938 3.51562 42.0938 3.51562
L42.0938 0
z
" id="Cmr10-31"/>
    </defs>
    <g transform="translate(270.78 14.15625)scale(0.2 -0.2)">
     <use transform="translate(0.0 0.8125)" xlink:href="#Cmmi10-6d"/>
     <use transform="translate(87.79296875 -24.696875)scale(0.7)" xlink:href="#Cmr10-31"/>
    </g>
   </g>
   <g id="text_8">
    <!-- $x_1$ -->
    <g transform="translate(290.52 121.3975)scale(0.2 -0.2)">
     <use transform="translate(0.0 0.8125)" xlink:href="#Cmmi10-78"/>
     <use transform="translate(57.080078125 -24.696875)scale(0.7)" xlink:href="#Cmr10-31"/>
    </g>
   </g>
  </g>
 </g>
 <defs>
  <clipPath id="p9df90c061f">
   <rect height="242.73" width="326.43" x="0.0" y="15.17125"/>
  </clipPath>
 </defs>
</svg>
